[
  {
    "enabled": false,
    "proxy": false,
    "transformer": "(rule, body) => ({\n      OTA_AirPriceRS: {\n        Errors: {\n          Code: \"ERR_SOLD_OUT\",\n          Message: \"Sorry, sucka, all sold out!\",\n        },\n      },\n    })",
    "name": "Sold out",
    "text": "Force ERR_SOLD_OUT error",
    "status": 200
  }, {
    "enabled": false,
    "proxy": false,
    "transformer": "(rule, body) => ({\n      OTA_AirPriceRS: {\n        Errors: {\n          Code: rule.settings.code.value || \"ERR_UNKNOWN\",\n          Message: rule.settings.message.value || \"\",\n        },\n      },\n    })",
    "name": "Custom error",
    "text": "Force a custom error",
    "settings": {
      "code": {
        "type": "text",
        "name": "Code",
        "value": ""
      },
      "message": {
        "type": "text",
        "name": "Message",
        "value": ""
      }
    }
  }, {
    "enabled": false,
    "proxy": true,
    "transformer": "(rule, body) => {\n      try {\n        body\n          .OTA_AirPriceRS\n          .PricedItineraries[0]\n          .AirItineraryPricingInfo\n          .FareInfos\n          .FareInfo\n          .TPA_Extensions\n          .PriceDifference = rule.settings.amount.value;\n      } catch(e) {\n        console.log(e);\n      }\n\n      return body;\n    }",
    "name": "Price Increase",
    "text": "Force a price increase",
    "settings": {
      "amount": {
        "type": "text",
        "name": "Amount",
        "value": ""
      }
    }
  }
]
